{
  "migIndex": 1,
  "data": [
    {
      "path": "assets/fonts/Nunito-Black.ttf",
      "sha1": "d31807e29b4cba7f04b62b144e5516ebcab0532f"
    },
    {
      "path": "assets/fonts/Nunito-Bold.ttf",
      "sha1": "ff09271108352b2c57132ea84b65707b850ec076"
    },
    {
      "path": "assets/fonts/Nunito-Regular.ttf",
      "sha1": "7f3ad3ffc0534a5ca001ebabff474fe5404e2bb8"
    },
    {
      "path": "assets/fonts/Roboto-Black.ttf",
      "sha1": "869d4331ed87830e8f19105aff140f1458655e95"
    },
    {
      "path": "assets/fonts/Roboto-Bold.ttf",
      "sha1": "3a4a7ff4fdba5317d6941e2d66e629df6c3c8cf3"
    },
    {
      "path": "assets/fonts/Roboto-Regular.ttf",
      "sha1": "ba879317acdc045b8fa78cb8f948650627d0477c"
    }
  ]
}
